                                                  
                                                  
                                                  
  NOU!N   NOU!NO   OU!NOU       U!NOU!  U!NOU!  U!NO  
  U!NOU   U!NOU!  U!NOU!NO      NOU!NO  NOU!N   NOU!  
   OU!NO   OU!N  !NOU  OU!N      !NO     !NO    U!NO  
   !NOU!N  !NO   OU!    NOU       U!     OU!    NOU!  
   OU!NOU! OU!  U!NO    U!NO      NO     !NO    U!NO  
   !NOU!NO !NO  NOU!    NOU!      U!     OU!    NOU!  
   OU! OU!NOU!   !NO    U!N       NOU    !NO    U!N   
   !NO !NOU!NO   OU!    NOU       U!N    OU!     OU   
   OU!  U!NOU!   !NOU  OU!N       NOU!NOU!N      !N   
  U!NOU  OU!NO    U!NOU!NO         !NOU!NO            
  NOU!N   NOU!     OU!NOU            !NOU       U!NO  
                                                NOU!  
                                                  